[
	{
	"fecha" : "14/03/2018",
	"preguntas": 
		[{
			"pregunta_id": 1,
			"texto": "¿Cómo se llama la 'nueva canción' que propone Radio Planeta?",
			"respuestas": [{"opcion_1":"Planeta Download","opcion_2":"La nuevita","opcion_3":"El hit de tu vida"}]
		},
		{
			"pregunta_id": 2,
			"texto": "¿Qué artistas eran amigas y se distanciaron por un tiempo?",
			"respuestas": [{"opcion_1":"Demi y Selena ","opcion_2":"Taylor y Selena ","opcion_3":"Miley y Selena"}]
		},
		{
			"pregunta_id": 3,
			"texto": "¿Cuál de estas artistas se volvió conocida al participar en una serie de Disney?",
			"respuestas": [{"opcion_1":"Zendaya","opcion_2":"Katy Perry","opcion_3":"Rihanna"}]
		},
		{
			"pregunta_id": 4,
			"texto": "¿Quién es la cantante favorita de Gachi? ",
			"respuestas": [{"opcion_1":"Shakira","opcion_2":"Rihanna","opcion_3":"Selena Gomez"}]
		},
		{
			"pregunta_id": 5,
			"texto": "¿En cuál de las siguientes obras de teatro ha participado Gachi? ",
			"respuestas": [{"opcion_1":"Full Monty","opcion_2":"Chicago","opcion_3":"El mago de Oz"}]
		}
		]
	},
	{
	"fecha" : "15/03/2018",
	"preguntas": 
		[{
			"pregunta_id": 1,
			"texto": "¿Cómo se llama la 'nueva canción' que propone Radio Planeta?",
			"respuestas": [{"opcion_1":"Planeta Download","opcion_2":"La nuevita","opcion_3":"El hit de tu vida"}]
		},
		{
			"pregunta_id": 2,
			"texto": "¿Qué artistas eran amigas y se distanciaron por un tiempo?",
			"respuestas": [{"opcion_1":"Demi y Selena ","opcion_2":"Taylor y Selena ","opcion_3":"Miley y Selena"}]
		},
		{
			"pregunta_id": 3,
			"texto": "¿Cuál de estas artistas se volvió conocida al participar en una serie de Disney?",
			"respuestas": [{"opcion_1":"Zendaya","opcion_2":"Katy Perry","opcion_3":"Rihanna"}]
		},
		{
			"pregunta_id": 4,
			"texto": "¿Quién es la cantante favorita de Gachi? ",
			"respuestas": [{"opcion_1":"Shakira","opcion_2":"Rihanna","opcion_3":"Selena Gomez"}]
		},
		{
			"pregunta_id": 5,
			"texto": "¿En cuál de las siguientes obras de teatro ha participado Gachi? ",
			"respuestas": [{"opcion_1":"Full Monty","opcion_2":"Chicago","opcion_3":"El mago de Oz"}]
		}
		]
	},
	{
	"fecha" : "16/03/2018",
	"preguntas": 
		[{
			"pregunta_id": 1,
			"texto": "¿Cómo se llama la 'nueva canción' que propone Radio Planeta?",
			"respuestas": [{"opcion_1":"Planeta Download","opcion_2":"La nuevita","opcion_3":"El hit de tu vida"}]
		},
		{
			"pregunta_id": 2,
			"texto": "¿Qué artistas eran amigas y se distanciaron por un tiempo?",
			"respuestas": [{"opcion_1":"Demi y Selena ","opcion_2":"Taylor y Selena ","opcion_3":"Miley y Selena"}]
		},
		{
			"pregunta_id": 3,
			"texto": "¿Cuál de estas artistas se volvió conocida al participar en una serie de Disney?",
			"respuestas": [{"opcion_1":"Zendaya","opcion_2":"Katy Perry","opcion_3":"Rihanna"}]
		},
		{
			"pregunta_id": 4,
			"texto": "¿Quién es la cantante favorita de Gachi? ",
			"respuestas": [{"opcion_1":"Shakira","opcion_2":"Rihanna","opcion_3":"Selena Gomez"}]
		},
		{
			"pregunta_id": 5,
			"texto": "¿En cuál de las siguientes obras de teatro ha participado Gachi? ",
			"respuestas": [{"opcion_1":"Full Monty","opcion_2":"Chicago","opcion_3":"El mago de Oz"}]
		}
		]
	},
	{
	"fecha" : "19/03/2018",
	"preguntas": 
		[{
			"pregunta_id": 1,
			"texto": "¿Cómo se llama la 'nueva canción' que propone Radio Planeta?",
			"respuestas": [{"opcion_1":"Planeta Download","opcion_2":"La nuevita","opcion_3":"El hit de tu vida"}]
		},
		{
			"pregunta_id": 2,
			"texto": "¿Qué artistas eran amigas y se distanciaron por un tiempo?",
			"respuestas": [{"opcion_1":"Demi y Selena ","opcion_2":"Taylor y Selena ","opcion_3":"Miley y Selena"}]
		},
		{
			"pregunta_id": 3,
			"texto": "¿Cuál de estas artistas se volvió conocida al participar en una serie de Disney?",
			"respuestas": [{"opcion_1":"Zendaya","opcion_2":"Katy Perry","opcion_3":"Rihanna"}]
		},
		{
			"pregunta_id": 4,
			"texto": "¿Quién es la cantante favorita de Gachi? ",
			"respuestas": [{"opcion_1":"Shakira","opcion_2":"Rihanna","opcion_3":"Selena Gomez"}]
		},
		{
			"pregunta_id": 5,
			"texto": "¿En cuál de las siguientes obras de teatro ha participado Gachi? ",
			"respuestas": [{"opcion_1":"Full Monty","opcion_2":"Chicago","opcion_3":"El mago de Oz"}]
		}
		]
	},
	{
	"fecha" : "20/03/2018",
	"preguntas": 
		[{
			"pregunta_id": 1,
			"texto": "¿Cómo se llama la 'nueva canción' que propone Radio Planeta?",
			"respuestas": [{"opcion_1":"Planeta Download","opcion_2":"La nuevita","opcion_3":"El hit de tu vida"}]
		},
		{
			"pregunta_id": 2,
			"texto": "¿Qué artistas eran amigas y se distanciaron por un tiempo?",
			"respuestas": [{"opcion_1":"Demi y Selena ","opcion_2":"Taylor y Selena ","opcion_3":"Miley y Selena"}]
		},
		{
			"pregunta_id": 3,
			"texto": "¿Cuál de estas artistas se volvió conocida al participar en una serie de Disney?",
			"respuestas": [{"opcion_1":"Zendaya","opcion_2":"Katy Perry","opcion_3":"Rihanna"}]
		},
		{
			"pregunta_id": 4,
			"texto": "¿Quién es la cantante favorita de Gachi? ",
			"respuestas": [{"opcion_1":"Shakira","opcion_2":"Rihanna","opcion_3":"Selena Gomez"}]
		},
		{
			"pregunta_id": 5,
			"texto": "¿En cuál de las siguientes obras de teatro ha participado Gachi? ",
			"respuestas": [{"opcion_1":"Full Monty","opcion_2":"Chicago","opcion_3":"El mago de Oz"}]
		}
		]
	}

]